9.536888685435263e-08,9.536888685435263e-08,9.384298466468299e-05,0.005468642710002289,0.013790571024544628,0.059655367025924846,0.11237139917695474,0.12657408838071693,0.168280094494659,0.23378638698630136,0.24914461678832117,0.24990466748017084,0.250209987782529,0.24990466748017084,0.2508228720146969,0.24975228658536586,0.2388301749271137
0.2403719190140845,0.25005723443223443,0.25051605504587154,0.24975228658536586,0.24929625684723067,0.24748867069486405,0.1906861033519553,0.12904655009451796,0.11531355574324324,0.06034085886859163,0.002826806976354184,0.0011924925612268253,3.814755474174105e-07,9.536888685435263e-08,9.536888685435263e-08,9.536888685435263e-08,9.536888685435263e-08
9.536888685435263e-08,9.536888685435263e-08,9.536888685435263e-08,9.536888685435263e-08,0.000148203250171664,0.005858987563897154,0.03936887254901961,0.11224821869005207,0.13307139376218324,0.1892762245841035,0.23924868574766356,0.24944808160779536,0.24975228658536586,0.24884188942891858,0.25036292787286063,0.24899316109422492,0.25036292787286063
0.24929625684723067,0.23924868574766356,0.24975228658536586,0.24778811252268604,0.25036292787286063,0.24899316109422492,0.22542308750687948,0.17459239130434784,0.13346163245356793,0.12270633612941881,0.08606718848497584,0.004263275307197192,0.0003948271915770199,9.536888685435263e-08,9.536888685435263e-08,9.536888685435263e-08,9.536888685435263e-08
9.536888685435263e-08,9.536888685435263e-08,9.536888685435263e-08,9.536888685435263e-08,8.621347371633478e-05,0.005077821011673152,0.011445642150561671,0.06295630956040578,0.1121560104052574,0.12970036415452818,0.18212261004891062,0.23966866588648333,0.24808827983040582,0.24990466748017084,0.24929625684723067,0.24960009140767825,0.24975228658536586
0.25036292787286063,0.24914461678832117,0.24136343547436653,0.25005723443223443,0.24899316109422492,0.25113044144696506,0.250209987782529,0.24914461678832117,0.21355252867570385,0.14483513083451202,0.12366961050724638,0.09581140350877193,0.02449459357118815,0.0005133707179369802,9.536888685435263e-08,9.536888685435263e-08,9.536888685435263e-08
9.536888685435263e-08,9.536888685435263e-08,9.536888685435263e-08,9.536888685435263e-08,9.536888685435263e-08,1.525902189669642e-06,0.0018074311436636912,0.00624628061341268,0.04654474431818182,0.10660951327433628,0.13027791030534353,0.1701677399252181,0.23206444759206799,0.24838917525773196,0.24975228658536586,0.24975228658536586,0.25005723443223443
0.2506693696450428,0.25036292787286063,0.24944808160779536,0.2399494727592267,0.24944808160779536,0.24914461678832117,0.25036292787286063,0.24990466748017084,0.24929625684723067,0.2402309384164223,0.1732630076142132,0.12606763619575254,0.09463811229205175,0.025333146812567355,0.00039368276493476767,3.147173266193637e-06,9.536888685435263e-08
9.536888685435263e-08,9.536888685435263e-08,9.536888685435263e-08,9.536888685435263e-08,9.536888685435263e-08,9.536888685435263e-08,9.536888685435263e-08,4.501411459525444e-05,0.005075055313954376,0.010026283902868893,0.07875288406075755,0.1263788182659673,0.17152167085427136,0.2270475332594235,0.24823863636363636,0.250209987782529,0.2508228720146969
0.24975228658536586,0.25036292787286063,0.25051605504587154,0.24990466748017084,0.2415057488207547,0.25051605504587154,0.24990466748017084,0.25113044144696506,0.24929625684723067,0.24615009014423078,0.19042015341701535,0.13460195530726257,0.11390260011123471,0.06977747018739353,0.005564509547902725,0.0011718928816662852,3.814755474174105e-07
9.536888685435263e-08,9.536888685435263e-08,9.536888685435263e-08,9.536888685435263e-08,9.536888685435263e-08,9.536888685435263e-08,9.536888685435263e-08,9.536888685435263e-08,0.000281528953994049,0.005077534905012589,0.032533260524225574,0.1047554347826087,0.13621341868972398,0.1901549442896936,0.23432136727688788,0.24929625684723067,0.24960009140767825
0.24990466748017084,0.24884188942891858,0.250209987782529,0.24929625684723067,0.24975228658536586,0.2409375,0.25036292787286063,0.250209987782529,0.25005723443223443,0.24944808160779536,0.23827443280977312,0.18626364256480218,0.13694207622868607,0.10778782894736842,0.008217013888888888,0.0007847905699244678,9.536888685435263e-08
9.536888685435263e-08,9.536888685435263e-08,9.536888685435263e-08,9.536888685435263e-08,9.536888685435263e-08,9.536888685435263e-08,9.536888685435263e-08,9.536888685435263e-08,7.62951094834821e-07,0.0034878309300373847,0.0050746738384069585,0.05208465793489318,0.10867438312549747,0.13927023121387283,0.20347429210134127,0.24748867069486405,0.24853989684466019
0.25005723443223443,0.250209987782529,0.25113044144696506,0.25005723443223443,0.250209987782529,0.24914461678832117,0.2399494727592267,0.25036292787286063,0.24990466748017084,0.24975228658536586,0.24884188942891858,0.24293816725978648,0.20592948717948717,0.1384698275862069,0.09308948863636364,0.0041051839875567925,9.536888685435263e-08
0.000810540169375143,3.051804379339284e-06,9.536888685435263e-08,9.536888685435263e-08,9.536888685435263e-08,9.536888685435263e-08,9.536888685435263e-08,9.536888685435263e-08,9.536888685435263e-08,9.536888685435263e-08,0.0016465438315403983,0.005465018692301824,0.034921455367038966,0.10143480683506687,0.15097447475119793,0.2289512297372834,0.25005723443223443
0.24778811252268604,0.24975228658536586,0.25005723443223443,0.24914461678832117,0.24960009140767825,0.25051605504587154,0.25036292787286063,0.24065437720329025,0.25036292787286063,0.24990466748017084,0.24884188942891858,0.25005723443223443,0.2415057488207547,0.19863906401551892,0.14797462066473988,0.11361823855755894,0.05295984287754837
0.005617900477604234,0.000784313725490196,4.768444342717632e-07,9.536888685435263e-08,9.536888685435263e-08,9.536888685435263e-08,9.536888685435263e-08,9.536888685435263e-08,9.536888685435263e-08,9.536888685435263e-08,7.629510948348211e-06,0.003187228198672465,0.006249904631113146,0.04252868341812896,0.09632966839134526,0.1417769989615784,0.21080481214616573
0.2388301749271137,0.25036292787286063,0.24975228658536586,0.24960009140767825,0.25051605504587154,0.24914461678832117,0.24944808160779536,0.25005723443223443,0.2403719190140845,0.25005723443223443,0.24914461678832117,0.2506693696450428,0.24960009140767825,0.24467965949820789,0.20665678607467206,0.14617906852248394,0.10093488171513061
0.08947001965923984,0.0035016663176996093,9.536888685435263e-08,9.536888685435263e-08,9.536888685435263e-08,9.536888685435263e-08,9.536888685435263e-08,9.536888685435263e-08,9.536888685435263e-08,9.536888685435263e-08,9.536888685435263e-08,3.2043945983062484e-05,0.00500810635538262,0.005468165865568017,0.043671366883463056,0.10708333333333334,0.17045099875156056
0.1864332043695949,0.24322669239904987,0.24899316109422492,0.25036292787286063,0.24990466748017084,0.24990466748017084,0.2506693696450428,0.24929625684723067,0.24929625684723067,0.2405130651790957,0.250209987782529,0.24884188942891858,0.24960009140767825,0.24944808160779536,0.24793810532687652,0.22492792421746294,0.1532910741017964
0.19768038127413126,0.12464812842361533,0.061279735188509876,0.002475616016427105,0.00039406424048218507,9.536888685435263e-08,9.536888685435263e-08,9.536888685435263e-08,9.536888685435263e-08,9.536888685435263e-08,9.536888685435263e-08,9.536888685435263e-08,8.392462043183031e-06,0.00018139162279697871,0.006249618524452582,0.03236871740161214,0.10688772181628392
0.0555456672091131,0.13324455107351985,0.20500187687687688,0.2427941612329579,0.25005723443223443,0.24899316109422492,0.24960009140767825,0.2508228720146969,0.25051605504587154,0.24960009140767825,0.2415057488207547,0.24914461678832117,0.24990466748017084,0.2509765625,0.24990466748017084,0.24929625684723067,0.24659467188440698
0.2125551375194603,0.1594991238317757,0.10322423135080645,0.01761173122738904,9.889753566796368e-05,3.814755474174105e-07,9.536888685435263e-08,9.536888685435263e-08,9.536888685435263e-08,9.536888685435263e-08,9.536888685435263e-08,9.536888685435263e-08,9.536888685435263e-08,9.536888685435263e-08,1.525902189669642e-06,0.0035131990539406426,0.005074959945067521
0.031979524515927546,0.08877194408322497,0.15323372615039282,0.2243120208105148,0.24944808160779536,0.25005723443223443,0.24899316109422492,0.24975228658536586,0.24899316109422492,0.25051605504587154,0.250209987782529,0.24122128975265017,0.24838917525773196,0.24914461678832117,0.2506693696450428,0.250209987782529,0.24570710857828434
0.24395101250744491,0.1994127312560857,0.14581479174083303,0.09594606465214336,0.027006385724457103,2.53681239032578e-05,3.147173266193637e-06,9.536888685435263e-08,9.536888685435263e-08,9.536888685435263e-08,9.536888685435263e-08,9.536888685435263e-08,9.536888685435263e-08,9.536888685435263e-08,6.103608758678568e-06,0.0015734912642099642,0.00625
0.00624628061341268,0.034764365133254115,0.09815330697340043,0.15826651854714066,0.22200203252032522,0.24823863636363636,0.24853989684466019,0.250209987782529,0.24853989684466019,0.2508228720146969,0.250209987782529,0.24960009140767825,0.2409375,0.250209987782529,0.24884188942891858,0.250209987782529,0.25051605504587154
0.25036292787286063,0.24541267225883762,0.2186832621462894,0.16429753309265946,0.09791865885727946,0.005861604036186499,0.001272697795071336,4.768444342717632e-07,9.536888685435263e-08,9.536888685435263e-08,9.536888685435263e-08,9.536888685435263e-08,9.536888685435263e-08,9.536888685435263e-08,9.536888685435263e-08,7.629510948348211e-06,0.0016853589684901198
0.0002772373540856031,0.00625,0.025762233473803384,0.08446973602804703,0.1623439357907253,0.22856794084821427,0.24929625684723067,0.2506693696450428,0.24960009140767825,0.250209987782529,0.24990466748017084,0.2509765625,0.24929625684723067,0.24065437720329025,0.24944808160779536,0.24944808160779536,0.24914461678832117
0.24929625684723067,0.24944808160779536,0.25036292787286063,0.24718995171997585,0.20655257186081694,0.12274310758166017,0.009199968176032006,0.0011719882505531395,3.814755474174105e-07,9.536888685435263e-08,9.536888685435263e-08,9.536888685435263e-08,9.536888685435263e-08,9.536888685435263e-08,9.536888685435263e-08,9.536888685435263e-08,1.525902189669642e-06
9.536888685435263e-08,1.2970168612191959e-05,0.0033376249332417794,0.005074769207293812,0.04524897812638091,0.13585199004975124,0.22492792421746294,0.24914461678832117,0.250209987782529,0.25051605504587154,0.24960009140767825,0.24975228658536586,0.24960009140767825,0.2508228720146969,0.2407958553791887,0.25051605504587154,0.24960009140767825
0.24960009140767825,0.24944808160779536,0.24929625684723067,0.25036292787286063,0.24960009140767825,0.21580281875658588,0.1288841252359975,0.028710161717420087,0.00010986495765621423,3.433279926756695e-06,9.536888685435263e-08,9.536888685435263e-08,9.536888685435263e-08,9.536888685435263e-08,9.536888685435263e-08,9.536888685435263e-08,9.536888685435263e-08
9.536888685435263e-08,9.536888685435263e-08,9.536888685435263e-08,0.0002103837644007019,0.006249618524452582,0.038739596141114156,0.13621341868972398,0.22200203252032522,0.2470408624849216,0.24990466748017084,0.25036292787286063,0.24960009140767825,0.250209987782529,0.24960009140767825,0.250209987782529,0.2409375,0.24914461678832117
0.24990466748017084,0.24990466748017084,0.2509765625,0.2506693696450428,0.250209987782529,0.24778811252268604,0.22128241491085898,0.1312800480769231,0.015516866721854304,0.000798905165178912,3.814755474174105e-07,9.536888685435263e-08,9.536888685435263e-08,9.536888685435263e-08,9.536888685435263e-08,9.536888685435263e-08,9.536888685435263e-08
9.536888685435263e-08,9.536888685435263e-08,9.536888685435263e-08,2.0599679560540168e-05,0.0017528801403830015,0.005465018692301824,0.0353524728120145,0.13398552502453387,0.22579589305402425,0.24899316109422492,0.25005723443223443,0.25005723443223443,0.25051605504587154,0.24929625684723067,0.25036292787286063,0.25005723443223443,0.24065437720329025
0.2384131257275902,0.24914461678832117,0.2509765625,0.24975228658536586,0.2509765625,0.2470408624849216,0.22692174515235458,0.1713781380753138,0.08545665553932819,0.004413096121122213,9.76577401388571e-05,9.536888685435263e-08,9.536888685435263e-08,9.536888685435263e-08,9.536888685435263e-08,9.536888685435263e-08,9.536888685435263e-08
9.536888685435263e-08,9.536888685435263e-08,9.536888685435263e-08,1.525902189669642e-06,0.0003445677882047761,0.0062493324177920195,0.023191990827246475,0.08316624365482234,0.1755652593227604,0.23580526770293608,0.24975228658536586,0.25051605504587154,0.24944808160779536,0.24838917525773196,0.250209987782529,0.25051605504587154,0.24944808160779536
0.24914461678832117,0.2399494727592267,0.24960009140767825,0.25036292787286063,0.2486908014571949,0.25036292787286063,0.2486908014571949,0.21891702298236237,0.15220875139353401,0.07497597473915431,0.004600245071043067,0.0012726024261844817,3.814755474174105e-07,9.536888685435263e-08,9.536888685435263e-08,9.536888685435263e-08,9.536888685435263e-08
9.536888685435263e-08,9.536888685435263e-08,9.536888685435263e-08,9.536888685435263e-08,9.536888685435263e-08,0.00024414435034714275,0.005074769207293812,0.01640015015015015,0.08308189655172414,0.1750400641025641,0.2310173434856176,0.24884188942891858,0.2508228720146969,0.24975228658536586,0.25051605504587154,0.25005723443223443,0.25051605504587154
0.24944808160779536,0.24929625684723067,0.24107931135962332,0.24990466748017084,0.24944808160779536,0.25036292787286063,0.24975228658536586,0.24674322289156628,0.22080525606469004,0.16144806858494284,0.07534837196467992,0.003417459145839055,9.775310902571146e-05,3.814755474174105e-07,9.536888685435263e-08,9.536888685435263e-08,9.536888685435263e-08
9.536888685435263e-08,9.536888685435263e-08,9.536888685435263e-08,9.536888685435263e-08,9.536888685435263e-08,9.536888685435263e-08,0.0001773861295490959,0.005855745021744106,0.020801063937839624,0.08659487315010571,0.17964638157894736,0.23980898711943793,0.24944808160779536,0.24975228658536586,0.24914461678832117,0.2508228720146969,0.25036292787286063
0.24990466748017084,0.2506693696450428,0.24899316109422492,0.2402309384164223,0.25005723443223443,0.24944808160779536,0.25036292787286063,0.250209987782529,0.24990466748017084,0.24793810532687652,0.21500984251968505,0.1122789884868421,0.004569084765749014,4.768444342717632e-07,9.536888685435263e-08,9.536888685435263e-08,9.536888685435263e-08
9.536888685435263e-08,9.536888685435263e-08,9.536888685435263e-08,9.536888685435263e-08,9.536888685435263e-08,9.536888685435263e-08,9.536888685435263e-08,7.62951094834821e-07,0.0017302777141985199,0.005468738078889143,0.04216530265596047,0.15346337579617833,0.2385519801980198,0.24929625684723067,0.24823863636363636,0.25113044144696506,0.24975228658536586
0.24944808160779536,0.24884188942891858,0.24960009140767825,0.24899316109422492,0.23952850877192983,0.24975228658536586,0.24960009140767825,0.24960009140767825,0.25005723443223443,0.24778811252268604,0.2270475332594235,0.1630548367834395,0.07158227018524992,0.002599619919954874,9.536888685435263e-08,9.536888685435263e-08,9.536888685435263e-08
9.536888685435263e-08,9.536888685435263e-08,9.536888685435263e-08,9.536888685435263e-08,9.536888685435263e-08,9.536888685435263e-08,9.536888685435263e-08,7.62951094834821e-07,0.00031900892652780957,0.005465495536736096,0.01751598315087239,0.08364177047171738,0.18425269905533062,0.24207668439716312,0.24944808160779536,0.24929625684723067,0.24960009140767825
0.250209987782529,0.24914461678832117,0.24990466748017084,0.2506693696450428,0.24975228658536586,0.24065437720329025,0.24960009140767825,0.24975228658536586,0.25005723443223443,0.250209987782529,0.24823863636363636,0.22805888084632517,0.15639318442153494,0.06579819277108434,0.003313449508489723,0.0003917753871976806,9.536888685435263e-08
9.536888685435263e-08,9.536888685435263e-08,9.536888685435263e-08,9.536888685435263e-08,9.536888685435263e-08,9.536888685435263e-08,9.536888685435263e-08,9.536888685435263e-08,9.536888685435263e-08,0.00014267185473411154,0.005077916380560006,0.012723068679526606,0.0810114220727848,0.18155751329787234,0.23594110023041476,0.24975228658536586,0.2508228720146969
0.24884188942891858,0.25005723443223443,0.24823863636363636,0.2508228720146969,0.25051605504587154,0.24914461678832117,0.2403719190140845,0.24793810532687652,0.24929625684723067,0.2514387661141805,0.24899316109422492,0.24929625684723067,0.24960009140767825,0.23036768841394825,0.11349231088944306,0.004965919249106079,0.0004916266117341878
3.814755474174105e-07,9.536888685435263e-08,9.536888685435263e-08,9.536888685435263e-08,9.536888685435263e-08,9.536888685435263e-08,9.536888685435263e-08,9.536888685435263e-08,9.536888685435263e-08,9.536888685435263e-08,9.536888685435263e-08,0.00011224917982757305,0.005468356603341726,0.0301171875,0.1538091438227563,0.2349935456110155,0.24808827983040582
0.24944808160779536,0.2506693696450428,0.250209987782529,0.250209987782529,0.25036292787286063,0.24975228658536586,0.24990466748017084,0.2402309384164223,0.24990466748017084,0.24990466748017084,0.24929625684723067,0.24975228658536586,0.25051605504587154,0.24914461678832117,0.2323277084515031,0.12285355428914217,0.004030007151654813
0.001453348270905555,4.768444342717632e-07,9.536888685435263e-08,9.536888685435263e-08,9.536888685435263e-08,9.536888685435263e-08,9.536888685435263e-08,9.536888685435263e-08,9.536888685435263e-08,9.536888685435263e-08,9.536888685435263e-08,9.536888685435263e-08,0.00025844968337529565,0.005468738078889143,0.025930219675867307,0.14851114938361132,0.2384131257275902
0.24366076740035694,0.250209987782529,0.25036292787286063,0.25005723443223443,0.250209987782529,0.24763830108827087,0.24990466748017084,0.24929625684723067,0.2399494727592267,0.24990466748017084,0.25005723443223443,0.24944808160779536,0.24990466748017084,0.24793810532687652,0.23023819561551434,0.15814430501930501,0.06244759109620369
0.05529073299136069,0.0022297933396851323,3.814755474174105e-07,9.536888685435263e-08,9.536888685435263e-08,9.536888685435263e-08,9.536888685435263e-08,9.536888685435263e-08,9.536888685435263e-08,9.536888685435263e-08,9.536888685435263e-08,9.536888685435263e-08,0.0003791866941329061,0.005077534905012589,0.01609721949302417,0.09210563301101866,0.19293158266603863
0.18788704128440367,0.24122128975265017,0.24990466748017084,0.24960009140767825,0.24990466748017084,0.24990466748017084,0.24960009140767825,0.250209987782529,0.2486908014571949,0.24009012309495897,0.24960009140767825,0.24944808160779536,0.24763830108827087,0.25036292787286063,0.250209987782529,0.2371706716850029,0.15520793861311102
0.22443493150684932,0.10850165562913908,0.001980538081986764,9.536888685435263e-08,9.536888685435263e-08,9.536888685435263e-08,9.536888685435263e-08,9.536888685435263e-08,9.536888685435263e-08,9.536888685435263e-08,9.536888685435263e-08,9.536888685435263e-08,9.536888685435263e-08,5.0354772259098195e-05,0.005074959945067521,0.008190400727868984,0.07624604430379747
0.023996353037670632,0.153176421091997,0.24164823008849556,0.24899316109422492,0.25036292787286063,0.25005723443223443,0.25005723443223443,0.250209987782529,0.24975228658536586,0.25036292787286063,0.2403719190140845,0.250209987782529,0.24990466748017084,0.25005723443223443,0.24884188942891858,0.250209987782529,0.24899316109422492
0.2405130651790957,0.17253317186183656,0.011440714532274767,0.0011753261615930419,9.536888685435263e-08,9.536888685435263e-08,9.536888685435263e-08,9.536888685435263e-08,9.536888685435263e-08,9.536888685435263e-08,9.536888685435263e-08,9.536888685435263e-08,9.536888685435263e-08,9.536888685435263e-08,9.536888685435263e-08,0.0002021820401312276,0.005077821011673152
0.014348551460800113,0.08867584975102837,0.21512276785714285,0.24899316109422492,0.24960009140767825,0.24960009140767825,0.24929625684723067,0.250209987782529,0.24929625684723067,0.24990466748017084,0.25051605504587154,0.2399494727592267,0.24944808160779536,0.24929625684723067,0.2506693696450428,0.24944808160779536,0.25051605504587154
0.24914461678832117,0.24763830108827087,0.2043880988023952,0.08422655768044417,0.001461804836817774,4.768444342717632e-07,9.536888685435263e-08,9.536888685435263e-08,9.536888685435263e-08,9.536888685435263e-08,9.536888685435263e-08,9.536888685435263e-08,9.536888685435263e-08,9.536888685435263e-08,9.536888685435263e-08,0.000283150225070573,0.005074769207293812
0.0033285648889906155,0.006249904631113146,0.058664243769693494,0.1836743273542601,0.24733922101449277,0.25005723443223443,0.25036292787286063,0.25005723443223443,0.24990466748017084,0.2506693696450428,0.24960009140767825,0.2508228720146969,0.2403719190140845,0.25051605504587154,0.25051605504587154,0.25036292787286063,0.25051605504587154
0.25005723443223443,0.24990466748017084,0.2407958553791887,0.1529476288274832,0.029152667736435663,0.0012611581597619592,3.814755474174105e-07,9.536888685435263e-08,9.536888685435263e-08,9.536888685435263e-08,9.536888685435263e-08,9.536888685435263e-08,9.536888685435263e-08,9.536888685435263e-08,9.536888685435263e-08,9.536888685435263e-08,4.34882124055848e-05
9.536888685435263e-08,0.0017296101319905395,0.005077725642786297,0.06890877355316286,0.1994127312560857,0.24689195298372513,0.24884188942891858,0.25005723443223443,0.24838917525773196,0.24944808160779536,0.24975228658536586,0.24944808160779536,0.24929625684723067,0.2409375,0.25036292787286063,0.24929625684723067,0.2486908014571949
0.25005723443223443,0.250209987782529,0.24990466748017084,0.24380580357142856,0.15820538818076477,0.004927237667166084,3.147173266193637e-06,9.536888685435263e-08,9.536888685435263e-08,9.536888685435263e-08,9.536888685435263e-08,9.536888685435263e-08,9.536888685435263e-08,9.536888685435263e-08,9.536888685435263e-08,9.536888685435263e-08,9.536888685435263e-08
9.536888685435263e-08,9.536888685435263e-08,0.0018425268940260929,0.005855840390630961,0.0639990234375,0.20833863173957273,0.24990466748017084,0.24975228658536586,0.25005723443223443,0.24960009140767825,0.2506693696450428,0.24990466748017084,0.24960009140767825,0.25113044144696506,0.2403719190140845,0.24960009140767825,0.24853989684466019
0.24808827983040582,0.24944808160779536,0.24975228658536586,0.24975228658536586,0.24541267225883762,0.14818876628075253,0.00493260524459078,0.0003908216983291371,9.536888685435263e-08,9.536888685435263e-08,9.536888685435263e-08,9.536888685435263e-08,9.536888685435263e-08,9.536888685435263e-08,9.536888685435263e-08,9.536888685435263e-08,9.536888685435263e-08
9.536888685435263e-08,9.536888685435263e-08,9.536888685435263e-08,0.000252059967956054,0.006246852826733806,0.06647091041869523,0.21113079896907216,0.24884188942891858,0.24975228658536586,0.24960009140767825,0.24944808160779536,0.24990466748017084,0.24929625684723067,0.24960009140767825,0.24899316109422492,0.23980898711943793,0.25036292787286063
0.2486908014571949,0.25036292787286063,0.24929625684723067,0.24899316109422492,0.24929625684723067,0.23526349798966112,0.1569926216941357,0.05814789182282794,0.0017736503293335722,3.5286488136110474e-06,9.536888685435263e-08,9.536888685435263e-08,9.536888685435263e-08,9.536888685435263e-08,9.536888685435263e-08,9.536888685435263e-08,9.536888685435263e-08
9.536888685435263e-08,9.536888685435263e-08,9.536888685435263e-08,3.280689707789731e-05,0.005074864576180667,0.009246952251947172,0.0803125,0.1892762245841035,0.24179087957497047,0.2509765625,0.24960009140767825,0.24975228658536586,0.2506693696450428,0.24853989684466019,0.24960009140767825,0.2506693696450428,0.2405130651790957
0.2388301749271137,0.24975228658536586,0.25036292787286063,0.24899316109422492,0.250209987782529,0.24975228658536586,0.23952850877192983,0.1805172983693257,0.06298775135652729,0.00044069962615396355,3.051804379339284e-06,9.536888685435263e-08,9.536888685435263e-08,9.536888685435263e-08,9.536888685435263e-08,9.536888685435263e-08,9.536888685435263e-08
9.536888685435263e-08,9.536888685435263e-08,9.536888685435263e-08,9.536888685435263e-08,6.86655985351339e-06,0.003285362783245594,0.005856031128404669,0.06518041852323361,0.18575680272108844,0.24526571856287424,0.24914461678832117,0.24944808160779536,0.250209987782529,0.25036292787286063,0.24853989684466019,0.24990466748017084,0.24929625684723067
0.24960009140767825,0.2405130651790957,0.250209987782529,0.25036292787286063,0.25005723443223443,0.24975228658536586,0.24853989684466019,0.24929625684723067,0.2294642857142857,0.11498982313307131,0.0025486535835164185,4.768444342717632e-07,9.536888685435263e-08,9.536888685435263e-08,9.536888685435263e-08,9.536888685435263e-08,9.536888685435263e-08
9.536888685435263e-08,9.536888685435263e-08,9.536888685435263e-08,9.536888685435263e-08,9.536888685435263e-08,9.536888685435263e-08,0.00033035782406347754,0.0050746738384069585,0.02481634353226295,0.14932327743346702,0.24065437720329025,0.24944808160779536,0.25005723443223443,0.2506693696450428,0.24914461678832117,0.24975228658536586,0.25051605504587154
0.25005723443223443,0.24990466748017084,0.2407958553791887,0.25036292787286063,0.24975228658536586,0.25005723443223443,0.25036292787286063,0.24899316109422492,0.24107931135962332,0.18575680272108844,0.06972995403472931,0.0013064246244843957,3.5286488136110474e-06,9.536888685435263e-08,9.536888685435263e-08,9.536888685435263e-08,9.536888685435263e-08
9.536888685435263e-08,9.536888685435263e-08,9.536888685435263e-08,9.536888685435263e-08,9.536888685435263e-08,9.536888685435263e-08,0.0001403830014496071,0.0050781071183337145,0.008315442475181192,0.06876993787777032,0.18626364256480218,0.24467965949820789,0.24899316109422492,0.24975228658536586,0.24944808160779536,0.24929625684723067,0.24929625684723067
0.25036292787286063,0.251284509202454,0.2509765625,0.2409375,0.24914461678832117,0.25036292787286063,0.24914461678832117,0.250209987782529,0.24990466748017084,0.24380580357142856,0.19356982514177692,0.07617514413241584,0.0014504396379654485,3.814755474174105e-07,9.536888685435263e-08,9.536888685435263e-08,9.536888685435263e-08
9.536888685435263e-08,9.536888685435263e-08,9.536888685435263e-08,9.536888685435263e-08,9.536888685435263e-08,9.536888685435263e-08,9.536888685435263e-08,0.00010614557106889448,0.004699778744182498,0.005856221866178378,0.061188190917239316,0.181316401062417,0.24308234421364985,0.2509765625,0.2486908014571949,0.24899316109422492,0.24975228658536586
0.25005723443223443,0.24884188942891858,0.2506693696450428,0.250209987782529,0.2399494727592267,0.24944808160779536,0.250209987782529,0.24944808160779536,0.2508228720146969,0.25159321253071254,0.24136343547436653,0.15080771354933725,0.04066916301751592,0.0015280956740672924,9.536888685435263e-08,9.536888685435263e-08,9.536888685435263e-08
9.536888685435263e-08,9.536888685435263e-08,9.536888685435263e-08,9.536888685435263e-08,9.536888685435263e-08,9.536888685435263e-08,9.536888685435263e-08,9.536888685435263e-08,7.62951094834821e-07,0.0018497749294270238,0.005855745021744106,0.07308953426124197,0.1946738355513308,0.24380580357142856,0.25005723443223443,0.24884188942891858,0.2506693696450428
0.25005723443223443,0.24884188942891858,0.24929625684723067,0.25036292787286063,0.24929625684723067,0.24122128975265017,0.250209987782529,0.24929625684723067,0.2506693696450428,0.251284509202454,0.25005723443223443,0.243515903686088,0.1507522083179978,0.005561296676468957,9.76577401388571e-05,9.536888685435263e-08,9.536888685435263e-08
3.814755474174105e-07,9.536888685435263e-08,9.536888685435263e-08,9.536888685435263e-08,9.536888685435263e-08,9.536888685435263e-08,9.536888685435263e-08,9.536888685435263e-08,9.536888685435263e-08,7.62951094834821e-07,0.001788452735179675,0.0062493324177920195,0.06964695629994899,0.20634445843828716,0.24793810532687652,0.24960009140767825,0.24929625684723067
0.24823863636363636,0.250209987782529,0.24899316109422492,0.24990466748017084,0.24853989684466019,0.24914461678832117,0.2402309384164223,0.24990466748017084,0.24975228658536586,0.24990466748017084,0.24960009140767825,0.24944808160779536,0.2327237215909091,0.15277648265572547,0.057317905121746435,0.002034406181552689,0.00039368276493476767
9.813458457312887e-05,9.536888685435263e-08,9.536888685435263e-08,9.536888685435263e-08,9.536888685435263e-08,9.536888685435263e-08,9.536888685435263e-08,9.536888685435263e-08,9.536888685435263e-08,9.536888685435263e-08,8.010986495765621e-05,0.005074959945067521,0.010218385141203472,0.07951732673267327,0.181316401062417,0.23634953837276398,0.24944808160779536
0.24914461678832117,0.250209987782529,0.24838917525773196,0.25005723443223443,0.25051605504587154,0.24944808160779536,0.24990466748017084,0.2407958553791887,0.24914461678832117,0.25005723443223443,0.25005723443223443,0.2486908014571949,0.24733922101449277,0.22767857142857142,0.1620228441455696,0.0683567673564753,0.0019557503474358097
0.004476324968763015,0.0003906309605554284,9.536888685435263e-08,9.536888685435263e-08,9.536888685435263e-08,9.536888685435263e-08,9.536888685435263e-08,9.536888685435263e-08,9.536888685435263e-08,9.536888685435263e-08,7.62951094834821e-07,3.061341268024719e-05,0.005855649652857252,0.020471498900439825,0.08833162605132629,0.1829360205448861,0.2402309384164223
0.23180178268251272,0.24853989684466019,0.25005723443223443,0.250209987782529,0.24960009140767825,0.25051605504587154,0.24929625684723067,0.24718995171997585,0.23980898711943793,0.24884188942891858,0.24929625684723067,0.24944808160779536,0.25036292787286063,0.24944808160779536,0.24944808160779536,0.2294642857142857,0.12622303543913713
0.1150221145745577,0.005414611686852291,0.0012729839017318989,3.051804379339284e-06,9.536888685435263e-08,9.536888685435263e-08,9.536888685435263e-08,9.536888685435263e-08,9.536888685435263e-08,9.536888685435263e-08,9.536888685435263e-08,9.536888685435263e-08,9.536888685435263e-08,2.0313572899977112e-05,0.005859369039444571,0.02824005446773304,0.13749370594159113
0.1477078074287775,0.22780520022246942,0.24838917525773196,0.250209987782529,0.24960009140767825,0.25005723443223443,0.25005723443223443,0.250209987782529,0.25005723443223443,0.2407958553791887,0.24884188942891858,0.2506693696450428,0.24929625684723067,0.24944808160779536,0.24960009140767825,0.24914461678832117,0.22492792421746294
0.22176164049810504,0.12043332843281387,0.0055684594840322765,0.0004903868162050813,4.768444342717632e-07,9.536888685435263e-08,9.536888685435263e-08,9.536888685435263e-08,9.536888685435263e-08,9.536888685435263e-08,9.536888685435263e-08,9.536888685435263e-08,9.536888685435263e-08,7.62951094834821e-07,6.256198977645533e-05,0.006246662088960098,0.037097522869305316
0.04111974199377572,0.1437171052631579,0.22907927852348994,0.25005723443223443,0.24960009140767825,0.25036292787286063,0.24914461678832117,0.250209987782529,0.2506693696450428,0.24960009140767825,0.2407958553791887,0.24990466748017084,0.24990466748017084,0.25051605504587154,0.24944808160779536,0.24944808160779536,0.24853989684466019
0.22104357798165136,0.1524353368068478,0.07610437569676701,0.004441702847334411,0.00039406424048218507,9.536888685435263e-08,9.536888685435263e-08,9.536888685435263e-08,9.536888685435263e-08,9.536888685435263e-08,9.536888685435263e-08,9.536888685435263e-08,9.536888685435263e-08,9.536888685435263e-08,7.629510948348211e-06,0.0016569390402075227,0.006246852826733806
0.01959403702640643,0.0882745150862069,0.16904405695418903,0.22492792421746294,0.24748867069486405,0.24899316109422492,0.24975228658536586,0.24975228658536586,0.250209987782529,0.24929625684723067,0.24929625684723067,0.23980898711943793,0.24944808160779536,0.24990466748017084,0.25036292787286063,0.24944808160779536,0.24899316109422492
0.25113044144696506,0.2370334201388889,0.14617906852248394,0.05249183006535948,0.0019929942141783514,9.861142900740063e-05,9.536888685435263e-08,9.536888685435263e-08,9.536888685435263e-08,9.536888685435263e-08,9.536888685435263e-08,9.536888685435263e-08,9.536888685435263e-08,9.536888685435263e-08,9.536888685435263e-08,0.00014267185473411154,0.005077630273899443
0.0050781071183337145,0.008901115916203059,0.08348833061557277,0.17785225792444637,0.23325384396355353,0.25005723443223443,0.24929625684723067,0.24808827983040582,0.2486908014571949,0.2508228720146969,0.2506693696450428,0.25036292787286063,0.2409375,0.24853989684466019,0.25036292787286063,0.24975228658536586,0.24914461678832117
0.25005723443223443,0.2451189407540395,0.21145779556014455,0.14765456020187456,0.08020241824946152,0.004287230172204706,0.0007820248722056917,3.814755474174105e-07,9.536888685435263e-08,9.536888685435263e-08,9.536888685435263e-08,9.536888685435263e-08,9.536888685435263e-08,9.536888685435263e-08,9.536888685435263e-08,9.536888685435263e-08,1.373311970702678e-05
0.001637006942854963,0.005859178301670863,0.0348501446439207,0.100910014781966,0.16752300613496932,0.22882332402234637,0.24899316109422492,0.251284509202454,0.25005723443223443,0.25036292787286063,0.24975228658536586,0.25036292787286063,0.24944808160779536,0.2403719190140845,0.2506693696450428,0.24975228658536586,0.24914461678832117
0.2506693696450428,0.24929625684723067,0.24929625684723067,0.2272995283018868,0.1457629003558719,0.0666656494140625,0.003334674055535693,0.001176184481574731,3.051804379339284e-06,9.536888685435263e-08,9.536888685435263e-08,9.536888685435263e-08,9.536888685435263e-08,9.536888685435263e-08,9.536888685435263e-08,9.536888685435263e-08,1.525902189669642e-06
9.536888685435263e-08,3.2043945983062484e-05,0.005077916380560006,0.01299142825425019,0.0877826296613802,0.167454517579722,0.22592043574186432,0.24838917525773196,0.2486908014571949,0.24929625684723067,0.24990466748017084,0.24960009140767825,0.24929625684723067,0.25005723443223443,0.24136343547436653,0.25005723443223443,0.24914461678832117
0.25051605504587154,0.250209987782529,0.24975228658536586,0.24914461678832117,0.22369948115783725,0.14701857501794688,0.07158227018524992,0.003936452963917526,0.0012737468528267338,3.5286488136110474e-06,9.536888685435263e-08,9.536888685435263e-08,9.536888685435263e-08,9.536888685435263e-08,9.536888685435263e-08,9.536888685435263e-08,9.536888685435263e-08
9.536888685435263e-08,9.536888685435263e-08,0.00011062790875104906,0.005077630273899443,0.01722501997560873,0.09079888051429838,0.16119391971664698,0.22224294628323385,0.24748867069486405,0.2506693696450428,0.25051605504587154,0.25036292787286063,0.24929625684723067,0.24914461678832117,0.25036292787286063,0.2399494727592267,0.25005723443223443
0.24899316109422492,0.24899316109422492,0.25005723443223443,0.24990466748017084,0.24366076740035694,0.20520728957915832,0.14701857501794688,0.08982319078947368,0.012188371263697076,0.0007984283207446403,9.536888685435263e-08,9.536888685435263e-08,9.536888685435263e-08,9.536888685435263e-08,9.536888685435263e-08,9.536888685435263e-08,9.536888685435263e-08
9.536888685435263e-08,9.536888685435263e-08,6.86655985351339e-06,0.0033477340352483405,0.005077630273899443,0.03972395984870527,0.09907928156748912,0.15723368522072936,0.22321185286103543,0.2486908014571949,0.25051605504587154,0.2508228720146969,0.24929625684723067,0.24884188942891858,0.24914461678832117,0.24990466748017084,0.23980898711943793
0.24009012309495897,0.25036292787286063,0.24990466748017084,0.24960009140767825,0.24960009140767825,0.24914461678832117,0.24453358208955223,0.1965421065259117,0.1211099201655825,0.019635278175496013,0.00039311055161364155,3.051804379339284e-06,9.536888685435263e-08,9.536888685435263e-08,9.536888685435263e-08,9.536888685435263e-08,9.536888685435263e-08
9.536888685435263e-08,9.536888685435263e-08,9.536888685435263e-08,9.536888685435263e-08,0.00013437476157778286,0.0050781071183337145,0.009678491257088848,0.06665480065093572,0.1371254603280884,0.21080481214616573,0.24808827983040582,0.24884188942891858,0.250209987782529,0.25005723443223443,0.250209987782529,0.2509765625,0.24990466748017084
0.24944808160779536,0.2399494727592267,0.24914461678832117,0.2506693696450428,0.251284509202454,0.24975228658536586,0.24380580357142856,0.21091336251287332,0.15741496925441967,0.10206672065786195,0.008557579195025629,0.0011749446860456244,3.814755474174105e-07,9.536888685435263e-08,9.536888685435263e-08,9.536888685435263e-08,9.536888685435263e-08
9.536888685435263e-08,9.536888685435263e-08,9.536888685435263e-08,9.536888685435263e-08,2.5177386129549097e-05,0.004699492637521935,0.006249713893339437,0.04522899182862191,0.10108434106614017,0.15114160516605166,0.21671626984126985,0.24689195298372513,0.25036292787286063,0.24823863636363636,0.24944808160779536,0.2514387661141805,0.250209987782529
0.25051605504587154,0.24944808160779536,0.2407958553791887,0.25036292787286063,0.25051605504587154,0.2508228720146969,0.2486908014571949,0.24808827983040582,0.22104357798165136,0.14483513083451202,0.06844815340909091,0.0015710227787543265,9.908827344167239e-05,9.536888685435263e-08,9.536888685435263e-08,9.536888685435263e-08,9.536888685435263e-08
9.536888685435263e-08,9.536888685435263e-08,9.536888685435263e-08,9.536888685435263e-08,9.536888685435263e-08,2.2888532845044633e-06,1.1635004196231022e-05,0.006249618524452582,0.023859366808411487,0.0949452364394993,0.160625,0.23298848122866894,0.2506693696450428,0.24823863636363636,0.251284509202454,0.25051605504587154,0.24929625684723067
0.250209987782529,0.24823863636363636,0.250209987782529,0.2403719190140845,0.25005723443223443,0.2509765625,0.2486908014571949,0.24990466748017084,0.24823863636363636,0.22805888084632517,0.15962344115354637,0.10995805369127516,0.05319399350649351,0.001953704549085846,3.051804379339284e-06,9.536888685435263e-08,9.536888685435263e-08
9.536888685435263e-08,9.536888685435263e-08,9.536888685435263e-08,9.536888685435263e-08,9.536888685435263e-08,9.536888685435263e-08,9.536888685435263e-08,1.373311970702678e-05,0.0050774395361257345,0.009686502305782193,0.08238007843925986,0.13174453200385977,0.18458483551149166,0.23539870689655173,0.24975228658536586,0.25005723443223443,0.25113044144696506
0.25005723443223443,0.24899316109422492,0.2508228720146969,0.2486908014571949,0.24065437720329025,0.24990466748017084,0.24884188942891858,0.25051605504587154,0.24975228658536586,0.24207668439716312,0.19692007211538462,0.14036797464016448,0.09879251085383502,0.006972822586416661,0.0004914358739604791,9.536888685435263e-08,9.536888685435263e-08
9.536888685435263e-08,9.536888685435263e-08,9.536888685435263e-08,9.536888685435263e-08,9.536888685435263e-08,9.536888685435263e-08,9.536888685435263e-08,1.8310826276035707e-05,0.0050088693064774545,0.0050774395361257345,0.05069857036761975,0.10887659489633174,0.14202279819694869,0.20770474137931033,0.24748867069486405,0.25036292787286063,0.24990466748017084
0.24960009140767825,0.25005723443223443,0.25036292787286063,0.24960009140767825,0.25036292787286063,0.24136343547436653,0.25005723443223443,0.24990466748017084,0.24929625684723067,0.24960009140767825,0.24944808160779536,0.21433477237048665,0.13777119071644803,0.09455072714681441,0.017822963899546563,0.00118886854352636,3.433279926756695e-06
0.00039110780498970014,3.814755474174105e-07,9.536888685435263e-08,9.536888685435263e-08,9.536888685435263e-08,9.536888685435263e-08,9.536888685435263e-08,9.536888685435263e-08,9.536888685435263e-08,0.0002807660028992142,0.005075055313954376,0.029687160252228745,0.10564708537529018,0.1409476083964212,0.19569696607740086,0.23896951575262543,0.24914461678832117
0.24960009140767825,0.24929625684723067,0.25051605504587154,0.24718995171997585,0.25113044144696506,0.251284509202454,0.2402309384164223,0.24944808160779536,0.25005723443223443,0.24990466748017084,0.2508228720146969,0.24853989684466019,0.2125551375194603,0.13571694831013917,0.09474757113115892,0.03665268456375839,0.001274800947714525
0.001656515716059998,3.814755474174105e-07,9.536888685435263e-08,9.536888685435263e-08,9.536888685435263e-08,9.536888685435263e-08,9.536888685435263e-08,9.536888685435263e-08,9.536888685435263e-08,9.536888685435263e-08,0.0002563515678644999,0.005074769207293812,0.02496761658031088,0.10770280042072049,0.14207206035379813,0.20246848739495799,0.24107931135962332
0.24366076740035694,0.25036292787286063,0.250209987782529,0.24914461678832117,0.25051605504587154,0.24944808160779536,0.24899316109422492,0.2415057488207547,0.24990466748017084,0.24838917525773196,0.25005723443223443,0.24914461678832117,0.23910901926444833,0.1923878581493659,0.14427395209580837,0.11659372331340734,0.060438800354139
0.07337759763525618,0.0018919029891601884,3.147173266193637e-06,9.536888685435263e-08,9.536888685435263e-08,9.536888685435263e-08,9.536888685435263e-08,9.536888685435263e-08,9.536888685435263e-08,9.536888685435263e-08,8.087281605249104e-05,0.005077821011673152,0.009578227673456025,0.05764055023923445,0.11046217637540454,0.1336794223237598,0.1926593367826905
0.18123617256637167,0.24250666074600355,0.24960009140767825,0.25036292787286063,0.24823863636363636,0.24960009140767825,0.250209987782529,0.24975228658536586,0.2409375,0.24975228658536586,0.25005723443223443,0.25036292787286063,0.24929625684723067,0.24823863636363636,0.2245579769736842,0.159375,0.12333446251129178
0.12692709947319492,0.08755744976485677,0.0036420200892857144,0.00039368276493476767,9.536888685435263e-08,9.536888685435263e-08,9.536888685435263e-08,9.536888685435263e-08,9.536888685435263e-08,9.536888685435263e-08,9.536888685435263e-08,7.62951094834821e-07,0.0001862554360265507,0.00625,0.03228452352802081,0.09936772197962154,0.12759929906542056
0.12445875113947129,0.16752300613496932,0.2323277084515031,0.24808827983040582,0.2506693696450428,0.25005723443223443,0.24990466748017084,0.24990466748017084,0.2506693696450428,0.23952850877192983,0.24929625684723067,0.24899316109422492,0.24899316109422492,0.2509765625,0.250209987782529,0.23827443280977312,0.1783168262951676
0.13007105430295332,0.11924126637554586,0.08738932152762961,0.013201005114362835,3.719386587319753e-06,4.768444342717632e-07,9.536888685435263e-08,9.536888685435263e-08,9.536888685435263e-08,9.536888685435263e-08,9.536888685435263e-08,9.536888685435263e-08,1.525902189669642e-06,0.00025463492790112156,0.005465209430075532,0.021854324511791697,0.09159073121645796
0.11776703565267395,0.12916863765373698,0.16125738188976377,0.21845,0.24838917525773196,0.24990466748017084,0.250209987782529,0.25036292787286063,0.25036292787286063,0.24853989684466019,0.2399494727592267,0.2486908014571949,0.24990466748017084,0.24929625684723067,0.24975228658536586,0.23298848122866894,0.1717374213836478
0.1618947628458498,0.12929095643939395,0.12114574090505767,0.08672321617615922,0.011895539526458792,1.1444266422522317e-06,3.814755474174105e-07,9.536888685435263e-08,9.536888685435263e-08,9.536888685435263e-08,9.536888685435263e-08,9.536888685435263e-08,9.536888685435263e-08,7.62951094834821e-07,0.004836728465705349,0.005858796826123445,0.06815203826955075
